patient,ae,tr,action,intercurrent,severity,outcome,aeStart,aeEnd,trStart,trEnd,acStart,acEnd
ovarium01,Chronic and Recurring Abdominal Pain,NA,Abdominal CT Scan,No,Moderate,Not resolved,2011-04-19,NA,NA,NA,19/04/11,19/04/11
ovarium01,Acute rheumatic fever,NA,NA,NA,Moderate,Resolved,2011-04-22,NA,NA,NA,NA,NA
ovarium01,Pyelonephritis,NA,NA,NA,Moderate,Resolved,2011-04-22,NA,NA,NA,NA,NA
ovarium01,Rheumatoid arthritis,NA,NA,NA,Severe,Not resolved,2011-04-22,NA,NA,NA,NA,NA
ovarium01,Colonic mucosa,NA,NA,NA,Severe,Not resolved,2011-04-28,NA,NA,NA,NA,NA
ovarium01,Nausea,Dafalgan 100mg,NA,NA,Moderate,Resolved,2011-09-29,NA,NA,NA,NA,NA
ovarium01,Lower Abdominal Pain,Tramadol,NA,NA,Moderate,Resolved,2011-09-29,NA,NA,NA,NA,NA
ovarium01,Lower Abdominal Pain,NA,NA,NA,Moderate,Not resolved,2013-04-26,2013-04-26,NA,NA,NA,NA
ovarium01,Breast pain,NA,NA,NA,Severe,Resolved,2013-04-26,2013-04-26,NA,NA,NA,NA
ovarium01,Fatigue,NA,NA,NA,Mild,Resolved,2013-04-26,2013-04-26,NA,NA,NA,NA
ovarium01,Nausea,NA,NA,NA,Mild,Resolved,2013-07-18,2013-07-25,NA,NA,NA,NA
ovarium01,Diarrhea,NA,NA,NA,Mild,Resolved,2013-07-18,2013-07-25,NA,NA,NA,NA
ovarium01,Constipation,NA,NA,NA,Mild,Resolved,2013-07-25,2013-07-25,NA,NA,NA,NA
ovarium01,Rash,NA,NA,NA,Mild,Resolved,2013-07-25,2013-07-25,NA,NA,NA,NA
ovarium01,Constipation,NA,NA,NA,Mild,Resolved,2013-08-01,2013-08-01,NA,NA,NA,NA
ovarium01,Dyspnoea,NA,NA,NA,Moderate,Resolved,2013-08-14,2013-08-14,NA,NA,NA,NA
ovarium01,Pancytopenia,NA,NA,NA,Severe,Resolved,2013-09-05,2013-09-05,NA,NA,NA,NA
ovarium01,Neutropenia,NA,NA,NA,Severe,Resolved,2013-09-12,2013-09-12,NA,NA,NA,NA
ovarium01,Thrombocytopenia,NA,NA,NA,Severe,Resolved,2013-10-02,2013-10-02,NA,NA,NA,NA
ovarium01,Neutropenia,NA,NA,NA,Severe,Resolved,2013-10-17,2013-10-17,NA,NA,NA,NA
ovarium01,Neutropenia,NA,NA,NA,Severe,Resolved,2013-11-07,2013-11-07,NA,NA,NA,NA
ovarium01,Vomiting,NA,NA,NA,Mild,Resolved,2013-11-07,2013-11-07,NA,NA,NA,NA
ovarium01,Fatigue,NA,NA,NA,Mild,Resolved,2013-11-07,2013-11-07,NA,NA,NA,NA
ovarium01,Diarrhea,NA,NA,NA,Mild,Resolved,2013-11-07,2013-11-07,NA,NA,NA,NA
ovarium01,Lower Abdominal Pain,NA,NA,NA,Moderate,Not resolved,2014-05-19,2014-05-19,NA,NA,NA,NA
ovarium01,Lower Back Pain,NA,NA,NA,Moderate,Not resolved,2014-05-19,2014-05-19,NA,NA,NA,NA
ovarium01,Lower Abdominal Pain,NA,NA,NA,Moderate,Not resolved,2014-11-24,2014-11-24,NA,NA,NA,NA
ovarium01,Diarrhea,NA,NA,NA,Mild,Resolved,2014-11-24,2014-11-24,NA,NA,NA,NA
ovarium01,Constipation,NA,NA,NA,Mild,Resolved,2014-11-24,2014-11-24,,,,
