"patient","date","wbc","rbc","palatelet","hemoglobin","hematocrit","neutrophils","lymphocytes","monocytes","eosinophils","basophils","sodium","potassium","chloride","uricacid","glucose","creatinine","wbc1","wbc2","wbcl","wbcu","rbc1","rbc2","rbcl","rbcu","palatelet1","palatelet2","palateletl","palateletu","hemoglobin1","hemoglobin2","hemoglobinl","hemoglobinu","hematocrit1","hematocrit2","hematocritl","hematocritu","neutrophils1","neutrophils2","neutrophilsl","neutrophilsu","lymphocytes1","lymphocytes2","lymphocytesl","lymphocytesu","monocytes1","monocytes2","monocytesl","monocytesu","eosinophils1","eosinophils2","eosinophilsl","eosinophilsu","basophils1","basophils2","basophilsl","basophilsu","sodium1","sodium2","sodiuml","sodiumu","potassium1","potassium2","potassiuml","potassiumu","chloride1","chloride2","chloridel","chlorideu","uricacid1","uricacid2","uricacidl","uricacidu","glucose1","glucose2","glucosel","glucoseu","creatinine1","creatinine2","creatininel","creatinineu","status"
ovarium01,2011-04-24,4.5,4.6,147,14,40.8,73.4,14.5,9.1,2.4,0.6,138,3.9,99,4.7,87,NA,4.5,11,"Total WBC","thousand per mm3",4.7,6.1,"Total RBC","million per mm3",150,450,"Total RBC","million per mm3",13.5,17.5,"Hemoglobin","gm/dL",38.8,50,"Hematocrit","%",38,80,"Neutrophils","%",28,55,"Lymphocytes","%",4,8,"Monocytes","%",1,6,"Eosinophils","%",0,2,"Basophils","%",125,145,"Sodium","mEq/L",3.5,5,"Potassium","mEq/L",96,106,"Chloride","mEq/L",2.4,6,"Uric Acid","mg/dL",70,100,"Glucose","mg/dL",0.7,1.3,"Creatinine","mg/dL",2
ovarium01,2011-05-22,5.2,4.7,158,14.3,41.5,38.3,44.9,9.3,6.9,0.6,139,4.3,103,5.2,89,0.8,4.5,11,"Total WBC","thousand per mm3",4.7,6.1,"Total RBC","million per mm3",150,450,"Total RBC","million per mm3",13.5,17.5,"Hemoglobin","gm/dL",38.8,50,"Hematocrit","%",38,80,"Neutrophils","%",28,55,"Lymphocytes","%",4,8,"Monocytes","%",1,6,"Eosinophils","%",0,2,"Basophils","%",125,145,"Sodium","mEq/L",3.5,5,"Potassium","mEq/L",96,106,"Chloride","mEq/L",2.4,6,"Uric Acid","mg/dL",70,100,"Glucose","mg/dL",0.7,1.3,"Creatinine","mg/dL",2
ovarium01,2011-06-16,4.7,4.6,149,14.1,41,39.2,42,8.8,8.8,1.2,139,4.8,103,5.7,95,0.8,4.5,11,"Total WBC","thousand per mm3",4.7,6.1,"Total RBC","million per mm3",150,450,"Total RBC","million per mm3",13.5,17.5,"Hemoglobin","gm/dL",38.8,50,"Hematocrit","%",38,80,"Neutrophils","%",28,55,"Lymphocytes","%",4,8,"Monocytes","%",1,6,"Eosinophils","%",0,2,"Basophils","%",125,145,"Sodium","mEq/L",3.5,5,"Potassium","mEq/L",96,106,"Chloride","mEq/L",2.4,6,"Uric Acid","mg/dL",70,100,"Glucose","mg/dL",0.7,1.3,"Creatinine","mg/dL",2
ovarium01,2012-08-01,6.8,4.6,149,14.4,41.4,54.9,31.3,7.2,5.9,0.7,141,3.7,102,4.6,88,0.8,4.5,11,"Total WBC","thousand per mm3",4.7,6.1,"Total RBC","million per mm3",150,450,"Total RBC","million per mm3",13.5,17.5,"Hemoglobin","gm/dL",38.8,50,"Hematocrit","%",38,80,"Neutrophils","%",28,55,"Lymphocytes","%",4,8,"Monocytes","%",1,6,"Eosinophils","%",0,2,"Basophils","%",125,145,"Sodium","mEq/L",3.5,5,"Potassium","mEq/L",96,106,"Chloride","mEq/L",2.4,6,"Uric Acid","mg/dL",70,100,"Glucose","mg/dL",0.7,1.3,"Creatinine","mg/dL",1
ovarium01,2012-08-15,6.1,4.6,144,14.6,41.4,54.5,30.6,7.5,6.6,0.8,141,4.3,101,4.6,90,0.8,4.5,11,"Total WBC","thousand per mm3",4.7,6.1,"Total RBC","million per mm3",150,450,"Total RBC","million per mm3",13.5,17.5,"Hemoglobin","gm/dL",38.8,50,"Hematocrit","%",38,80,"Neutrophils","%",28,55,"Lymphocytes","%",4,8,"Monocytes","%",1,6,"Eosinophils","%",0,2,"Basophils","%",125,145,"Sodium","mEq/L",3.5,5,"Potassium","mEq/L",96,106,"Chloride","mEq/L",2.4,6,"Uric Acid","mg/dL",70,100,"Glucose","mg/dL",0.7,1.3,"Creatinine","mg/dL",1
ovarium01,2013-09-11,8.2,4.3,139,13.3,38.4,58.5,28.6,8.2,4.3,0.4,138,4.1,102,4.8,86,0.8,4.5,11,"Total WBC","thousand per mm3",4.7,6.1,"Total RBC","million per mm3",150,450,"Total RBC","million per mm3",13.5,17.5,"Hemoglobin","gm/dL",38.8,50,"Hematocrit","%",38,80,"Neutrophils","%",28,55,"Lymphocytes","%",4,8,"Monocytes","%",1,6,"Eosinophils","%",0,2,"Basophils","%",125,145,"Sodium","mEq/L",3.5,5,"Potassium","mEq/L",96,106,"Chloride","mEq/L",2.4,6,"Uric Acid","mg/dL",70,100,"Glucose","mg/dL",0.7,1.3,"Creatinine","mg/dL",1
ovarium01,2013-10-11,5.4,4.7,135,14.2,41.6,53.4,32.7,5.9,7.3,0.7,140,3.9,103,5.2,121,0.9,4.5,11,"Total WBC","thousand per mm3",4.7,6.1,"Total RBC","million per mm3",150,450,"Total RBC","million per mm3",13.5,17.5,"Hemoglobin","gm/dL",38.8,50,"Hematocrit","%",38,80,"Neutrophils","%",28,55,"Lymphocytes","%",4,8,"Monocytes","%",1,6,"Eosinophils","%",0,2,"Basophils","%",125,145,"Sodium","mEq/L",3.5,5,"Potassium","mEq/L",96,106,"Chloride","mEq/L",2.4,6,"Uric Acid","mg/dL",70,100,"Glucose","mg/dL",0.7,1.3,"Creatinine","mg/dL",2
ovarium01,2014-11-15,6.5,4.8,169,14.7,43.4,52.1,31.5,8.6,0.7,0.8,142,4.1,105,5.2,84,0.9,4.5,11,"Total WBC","thousand per mm3",4.7,6.1,"Total RBC","million per mm3",150,450,"Total RBC","million per mm3",13.5,17.5,"Hemoglobin","gm/dL",38.8,50,"Hematocrit","%",38,80,"Neutrophils","%",28,55,"Lymphocytes","%",4,8,"Monocytes","%",1,6,"Eosinophils","%",0,2,"Basophils","%",125,145,"Sodium","mEq/L",3.5,5,"Potassium","mEq/L",96,106,"Chloride","mEq/L",2.4,6,"Uric Acid","mg/dL",70,100,"Glucose","mg/dL",0.7,1.3,"Creatinine","mg/dL",1
ovarium01,2014-12-07,7.4,4.9,143,15.1,44.4,63,23.3,0.7,6.2,0.5,140,4.6,102,5.7,94,0.9,4.5,11,"Total WBC","thousand per mm3",4.7,6.1,"Total RBC","million per mm3",150,450,"Total RBC","million per mm3",13.5,17.5,"Hemoglobin","gm/dL",38.8,50,"Hematocrit","%",38,80,"Neutrophils","%",28,55,"Lymphocytes","%",4,8,"Monocytes","%",1,6,"Eosinophils","%",0,2,"Basophils","%",125,145,"Sodium","mEq/L",3.5,5,"Potassium","mEq/L",96,106,"Chloride","mEq/L",2.4,6,"Uric Acid","mg/dL",70,100,"Glucose","mg/dL",0.7,1.3,"Creatinine","mg/dL",1
ovarium01,2014-05-19,9.1,4.6,172,14.5,43.7,71.1,14,10.1,4.3,0.5,136,4.1,101,4.8,81,0.8,4.5,11,"Total WBC","thousand per mm3",4.7,6.1,"Total RBC","million per mm3",150,450,"Total RBC","million per mm3",13.5,17.5,"Hemoglobin","gm/dL",38.8,50,"Hematocrit","%",38,80,"Neutrophils","%",28,55,"Lymphocytes","%",4,8,"Monocytes","%",1,6,"Eosinophils","%",0,2,"Basophils","%",125,145,"Sodium","mEq/L",3.5,5,"Potassium","mEq/L",96,106,"Chloride","mEq/L",2.4,6,"Uric Acid","mg/dL",70,100,"Glucose","mg/dL",0.7,1.3,"Creatinine","mg/dL",2