start,description,available
2011-04-22,contact_03,1
2011-04-28,contact_05,1
2011-05-02,contact_07,1
2011-05-02,contact_08,1
2011-05-12,contact_11,1
2011-05-13,contact_14,0
2011-05-26,contact_15,1
2011-07-05,contact_19,1
2011-07-18,contact_21,
2011-08-15,contact_22,1
2011-08-25,contact_25,1
2011-09-07,contact_26,1
2011-10-20,contact_28,1
2011-11-14,contact_31,1
2012-01-10,contact_32,0
2012-03-05,contact_33,0
2012-03-05,contact_34,1
2012-06-12,contact_35,0
2012-08-08,contact_36,0
2012-10-01,contact_37,0
2012-11-05,contact_38,1
2012-12-28,contact_39,0
2013-02-20,contact_40,0
2013-04-16,contact_41,0
2013-04-26,contact_42,1
2013-05-02,contact_44,1
2013-05-02,contact_45,1
2013-05-06,contact_46,1
2013-06-24,contact_49,0
2013-06-24,contact_50,1
2013-06-27,contact_51,1
2013-07-04,contact_52,1
2013-07-25,contact_53,1
2013-08-01,contact_54,1
2013-08-14,contact_55,1
2013-08-22,contact_56,1
2013-08-29,contact_58,0
2013-09-05,contact_59,1
2013-09-12,contact_60,1
2013-09-18,contact_61,1
2013-09-19,contact_62,1
2013-09-25,contact_63,1
2013-10-02,contact_64,1
2013-10-10,contact_65,1
2013-10-17,contact_66,1
2013-10-23,contact_67,1
2013-10-30,contact_68,0
2013-11-18,contact_71,1
2014-01-01,contact_72,0
2014-02-27,contact_73,0
2014-04-02,contact_74,0
2014-05-19,contact_75,1
2014-07-02,contact_76,0
2014-09-04,contact_77,0
2014-11-21,contact_78,1
2011-12-04,contact_80,1
2014-12-08,contact_81,1
2014-12-09,contact_82,1
2014-12-11,contact_83,1
2014-12-11,contact_84,1
