<?xml version='1.0' encoding='iso-8859-1'?>
<!DOCTYPE svg PUBLIC '-//W3C//DTD SVG 1.1//EN' 'http://www.w3.org/Graphics/SVG/1.1/DTD/svg11.dtd'>
<svg version="1.1" xmlns="http://www.w3.org/2000/svg" viewBox="0 0 453.004 453.004" xmlns:xlink="http://www.w3.org/1999/xlink" enable-background="new 0 0 453.004 453.004">
  <g>
    <path d="M409.68,103.475c-0.001-2.602-0.993-5.159-2.906-7.072L313.286,2.928c-1.912-1.912-4.469-2.903-7.07-2.904V0H53.3   c-5.522,0-10,4.477-10,10v433.004c0,5.523,4.478,10,10,10h346.403c5.522,0,10-4.477,10-10V103.475H409.68z M316.215,34.14   l59.344,59.335h-59.344V34.14z M63.3,433.004V20h232.915v83.475c0,5.523,4.478,10,10,10h83.488v319.529H63.3z"/>
    <path d="m346.744,142.462h-240.484c-5.522,0-10,4.477-10,10v233.804c0,5.523 4.478,10 10,10h240.483c5.522,0 10-4.477 10-10v-233.804c0.001-5.523-4.477-10-9.999-10zm-10,20v124.278l-36.723-40.77c-3.525-3.913-9.48-4.421-13.617-1.164l-70.675,55.646-37.203-57.665c-1.733-2.686-4.646-4.381-7.836-4.563-3.204-0.182-6.277,1.174-8.302,3.646l-46.128,56.292v-135.7h220.484zm-220.484,167.256l52.899-64.555 71.678,111.103h-124.577v-46.548zm148.379,46.548l-38.02-58.932 64.804-51.024 45.32,50.315v59.641h-72.104z"/>
    <path d="m243.603,244.85c20.248,0 36.721-16.473 36.721-36.721 0-20.248-16.473-36.72-36.721-36.72-20.247,0-36.72,16.473-36.72,36.72 0,20.248 16.473,36.721 36.72,36.721zm0-53.441c9.22,0 16.721,7.5 16.721,16.72s-7.501,16.721-16.721,16.721-16.72-7.501-16.72-16.721 7.5-16.72 16.72-16.72z"/>
  </g>
</svg>
