<?xml version="1.0" encoding="iso-8859-1"?>
<!-- Generator: Adobe Illustrator 18.0.0, SVG Export Plug-In . SVG Version: 6.00 Build 0)  -->
<!DOCTYPE svg PUBLIC "-//W3C//DTD SVG 1.1//EN" "http://www.w3.org/Graphics/SVG/1.1/DTD/svg11.dtd">
<svg xmlns="http://www.w3.org/2000/svg" xmlns:xlink="http://www.w3.org/1999/xlink" version="1.1" id="Capa_1" x="0px" y="0px" viewBox="0 0 297 297" style="enable-background:new 0 0 297 297;" xml:space="preserve" width="512px" height="512px">
<path d="M287.23,138.73h-16.297V83.097h0.735c5.395,0,9.77-4.374,9.77-9.77v-30.07c0-5.395-4.374-9.77-9.77-9.77h-63.03  c-5.395,0-9.77,4.374-9.77,9.77v30.07c0,5.395,4.374,9.77,9.77,9.77h0.736v55.633H179.28V83.097h0.735c5.395,0,9.77-4.374,9.77-9.77  v-30.07c0-5.395-4.374-9.77-9.77-9.77h-63.03c-5.395,0-9.77,4.374-9.77,9.77v30.07c0,5.395,4.374,9.77,9.77,9.77h0.735v55.633  H87.626V83.097h0.736c5.395,0,9.77-4.374,9.77-9.77v-30.07c0-5.395-4.374-9.77-9.77-9.77h-63.03c-5.395,0-9.77,4.374-9.77,9.77  v30.07c0,5.395,4.374,9.77,9.77,9.77h0.735v55.633H9.77c-5.395,0-9.77,4.374-9.77,9.77v105.242c0,5.395,4.374,9.77,9.77,9.77H287.23  c5.395,0,9.77-4.374,9.77-9.77V148.5C297,143.105,292.626,138.73,287.23,138.73z M228.913,126.564h22.481v72.25  c0,6.198-5.042,11.24-11.241,11.24c-6.198,0-11.24-5.042-11.24-11.24V126.564z M218.408,53.028h43.491v10.53h-43.491V53.028z   M251.394,83.097v23.927h-22.481V83.097H251.394z M137.259,126.564h22.482v72.25c0,6.198-5.042,11.24-11.241,11.24  s-11.241-5.042-11.241-11.24V126.564z M126.755,53.028h43.491v10.53h-43.491V53.028z M159.741,83.097v23.927h-22.482V83.097H159.741  z M45.606,126.564h22.481v72.25c0,6.198-5.042,11.24-11.24,11.24c-6.199,0-11.241-5.042-11.241-11.24V126.564z M35.101,53.028  h43.491v10.53H35.101V53.028z M68.087,83.097v23.927H45.606V83.097H68.087z M277.461,243.972H19.539V158.27h6.527v40.544  c0,16.972,13.808,30.779,30.78,30.779s30.779-13.807,30.779-30.779V158.27h30.093v40.544c0,16.972,13.808,30.779,30.78,30.779  s30.78-13.807,30.78-30.779V158.27h30.093v40.544c0,16.972,13.807,30.779,30.779,30.779s30.78-13.807,30.78-30.779V158.27h6.527  V243.972z" fill="#feb24c"/>
<g>
</g>
<g>
</g>
<g>
</g>
<g>
</g>
<g>
</g>
<g>
</g>
<g>
</g>
<g>
</g>
<g>
</g>
<g>
</g>
<g>
</g>
<g>
</g>
<g>
</g>
<g>
</g>
<g>
</g>
</svg>
